ge-1/1/1	10.1.0.46 eth0	00:E0:81:E9:D0:FC
ge-1/1/2	10.1.0.47 eth0	00:E0:81:E9:CF:AC
ge-1/1/3	10.1.0.48 eth0	00:E0:81:E9:D4:DC
ge-1/1/4	10.1.0.49 eth0	00:E0:81:E9:D5:54
ge-1/1/5	10.1.0.50 eth0	00:E0:81:E9:CF:34
ge-1/1/6	10.1.0.51 eth0	00:E0:81:E9:D1:14
ge-1/1/7	10.1.0.52 eth0	00:E0:81:E9:D1:B4
ge-1/1/8	10.1.0.53 eth0	00:E0:81:E9:CF:60
ge-1/1/9	10.1.0.54 eth0	00:E0:81:E9:D4:2C
ge-1/1/10	10.1.0.55 eth0	00:E0:81:E9:D2:C4
ge-1/1/11	10.1.0.56 eth0	00:E0:81:E9:CF:4C
ge-1/1/12	10.1.0.57 eth0	00:E0:81:E9:D0:A0
ge-1/1/13	10.1.0.58 eth0	00:E0:81:E9:CF:44
ge-1/1/14	10.1.0.59 eth0	00:E0:81:E9:D1:28
ge-1/1/15	10.1.0.60 eth0	00:E0:81:E9:D4:E8
ge-1/1/19	10.1.0.203 eth0	00:E0:81:E8:48:30
ge-1/1/25	10.1.0.46 eth1	00:E0:81:E9:D0:FD
ge-1/1/26	10.1.0.47 eth1	00:E0:81:E9:CF:AD
ge-1/1/27	10.1.0.48 eth1	00:E0:81:E9:D4:DD
ge-1/1/28	10.1.0.49 eth1	00:E0:81:E9:D5:55
ge-1/1/29	10.1.0.50 eth1	00:E0:81:E9:CF:35
ge-1/1/30	10.1.0.51 eth1	00:E0:81:E9:D1:15
ge-1/1/31	10.1.0.52 eth1	00:E0:81:E9:D1:B5
ge-1/1/32	10.1.0.53 eth1	00:E0:81:E9:CF:61
ge-1/1/33	10.1.0.54 eth1	00:E0:81:E9:D4:2D
ge-1/1/34	10.1.0.55 eth1	00:E0:81:E9:D2:C5
ge-1/1/35	10.1.0.56 eth1	00:E0:81:E9:CF:4D
ge-1/1/36	10.1.0.57 eth1	00:E0:81:E9:D0:A1
ge-1/1/37	10.1.0.58 eth1	00:E0:81:E9:CF:45
ge-1/1/38	10.1.0.59 eth1	00:E0:81:E9:D1:29
ge-1/1/39	10.1.0.60 eth1	00:E0:81:E9:D4:E9
ge-1/1/43	10.1.0.203 eth1	00:E0:81:E8:48:31
