ge-1/1/1	10.1.0.91 eth3	00:E0:ED:34:97:1B
ge-1/1/2	10.1.0.92 eth3	00:E0:ED:2F:10:97
ge-1/1/3	10.1.0.93 eth3	00:E0:ED:15:6E:89
ge-1/1/4	10.1.0.94 eth3	00:E0:ED:2B:A8:A7
ge-1/1/5	10.1.0.95 eth3	00:E0:ED:2C:B0:91
ge-1/1/6	10.1.0.96 eth3	00:E0:ED:26:66:67
ge-1/1/7	10.1.0.97 eth3	00:E0:ED:27:C4:95
ge-1/1/8	10.1.0.98 eth3	00:E0:ED:34:1C:53
ge-1/1/9	10.1.0.99 eth3	00:E0:ED:31:9A:39
ge-1/1/10	10.1.0.100 eth3	00:E0:ED:27:C4:89
ge-1/1/11	10.1.0.101 eth3	00:E0:ED:29:3C:DD
ge-1/1/12	10.1.0.102 eth3	00:E0:ED:31:9A:33
ge-1/1/13	10.1.0.103 eth3	00:E0:ED:2D:1E:EF
ge-1/1/14	10.1.0.104 eth3	00:E0:ED:24:54:BB
ge-1/1/15	10.1.0.105 eth3	00:E0:ED:2E:12:D7
ge-1/1/25	10.1.0.91 eth2	00:E0:ED:34:97:1A
ge-1/1/26	10.1.0.92 eth2	00:E0:ED:2F:10:96
ge-1/1/27	10.1.0.93 eth2	00:E0:ED:15:6E:88
ge-1/1/28	10.1.0.94 eth2	00:E0:ED:2B:A8:A6
ge-1/1/29	10.1.0.95 eth2	00:E0:ED:2C:B0:90
ge-1/1/30	10.1.0.96 eth2	00:E0:ED:26:66:66
ge-1/1/31	10.1.0.97 eth2	00:E0:ED:27:C4:94
ge-1/1/32	10.1.0.98 eth2	00:E0:ED:34:1C:52
ge-1/1/33	10.1.0.99 eth2	00:E0:ED:31:9A:38
ge-1/1/34	10.1.0.100 eth2	00:E0:ED:27:C4:88
ge-1/1/35	10.1.0.101 eth2	00:E0:ED:29:3C:DC
ge-1/1/36	10.1.0.102 eth2	00:E0:ED:31:9A:32
ge-1/1/37	10.1.0.103 eth2	00:E0:ED:2D:1E:EE
ge-1/1/38	10.1.0.104 eth2	00:E0:ED:24:54:BA
ge-1/1/39	10.1.0.105 eth2	00:E0:ED:2E:12:D6
