ge-1/1/1	10.1.0.1 eth3	00:E0:ED:27:C3:79
ge-1/1/5	10.1.0.5 eth3	00:E0:ED:23:A6:81
ge-1/1/12	10.1.0.12 eth3	00:E0:ED:27:C4:73
ge-1/1/13	10.1.0.13 eth3	00:E0:ED:2C:B0:95
ge-1/1/14	10.1.0.14 eth3	00:E0:ED:15:6E:75
ge-1/1/15	10.1.0.15 eth3	00:E0:ED:2B:A8:A9
ge-1/1/25	10.1.0.1 eth2	00:E0:ED:27:C3:78
ge-1/1/29	10.1.0.5 eth2	00:E0:ED:23:A6:80
ge-1/1/36	10.1.0.12 eth2	00:E0:ED:27:C4:72
ge-1/1/37	10.1.0.13 eth2	00:E0:ED:2C:B0:94
ge-1/1/38	10.1.0.14 eth2	00:E0:ED:15:6E:74
ge-1/1/39	10.1.0.15 eth2	00:E0:ED:2B:A8:A8
