00:e0:81:e6:39:ae	ge-1/1/17
00:e0:81:e6:fd:88	ge-1/1/18
00:e0:81:e6:fe:f4	ge-1/1/19
00:e0:81:e9:cf:3c	ge-1/1/9
00:e0:81:e9:cf:58	ge-1/1/14
00:e0:81:e9:cf:68	ge-1/1/2
00:e0:81:e9:cf:f8	ge-1/1/10
00:e0:81:e9:d0:18	ge-1/1/4
00:e0:81:e9:d1:30	ge-1/1/11
00:e0:81:e9:d2:b4	ge-1/1/8
00:e0:81:e9:d3:c8	ge-1/1/7
00:e0:81:e9:d3:dc	ge-1/1/15
00:e0:81:e9:d4:10	ge-1/1/6
00:e0:81:e9:d4:5c	ge-1/1/5
00:e0:81:e9:d4:60	ge-1/1/3
00:e0:81:e9:d4:84	ge-1/1/13
00:e0:81:e9:d4:b4	ge-1/1/1
00:e0:81:e9:d4:cc	ge-1/1/12
00:e0:81:e6:39:af	ge-1/1/41
00:e0:81:e6:fd:89	ge-1/1/44
00:e0:81:e6:fe:f5	ge-1/1/43
00:e0:81:e9:cf:3d	ge-1/1/33
00:e0:81:e9:cf:59	ge-1/1/38
00:e0:81:e9:cf:69	ge-1/1/26
00:e0:81:e9:cf:f9	ge-1/1/34
00:e0:81:e9:d0:19	ge-1/1/28
00:e0:81:e9:d1:31	ge-1/1/35
00:e0:81:e9:d2:b5	ge-1/1/32
00:e0:81:e9:d3:c9	ge-1/1/31
00:e0:81:e9:d3:dd	ge-1/1/39
00:e0:81:e9:d4:11	ge-1/1/30
00:e0:81:e9:d4:5d	ge-1/1/29
00:e0:81:e9:d4:61	ge-1/1/27
00:e0:81:e9:d4:85	ge-1/1/37
00:e0:81:e9:d4:b5	ge-1/1/25
00:e0:81:e9:d4:cd	ge-1/1/36
