00:e0:81:e9:ce:cc	ge-1/1/3
00:e0:81:e9:ce:d0	ge-1/1/2
00:e0:81:e9:cf:20	ge-1/1/12
00:e0:81:e9:cf:b8	ge-1/1/1
00:e0:81:e9:cf:d8	ge-1/1/14
00:e0:81:e9:d0:48	ge-1/1/10
00:e0:81:e9:d0:68	ge-1/1/7
00:e0:81:e9:d0:98	ge-1/1/11
00:e0:81:e9:d0:e8	ge-1/1/15
00:e0:81:e9:d1:90	ge-1/1/5
00:e0:81:e9:d2:88	ge-1/1/6
00:e0:81:e9:d2:8c	ge-1/1/9
00:e0:81:e9:d2:90	ge-1/1/4
00:e0:81:e9:d4:30	ge-1/1/8
00:e0:81:e9:d5:4c	ge-1/1/13
00:e0:81:e9:ce:cd	ge-1/1/27
00:e0:81:e9:ce:d1	ge-1/1/26
00:e0:81:e9:cf:21	ge-1/1/36
00:e0:81:e9:cf:b9	ge-1/1/25
00:e0:81:e9:cf:d9	ge-1/1/38
00:e0:81:e9:d0:49	ge-1/1/34
00:e0:81:e9:d0:69	ge-1/1/31
00:e0:81:e9:d0:99	ge-1/1/35
00:e0:81:e9:d0:e9	ge-1/1/39
00:e0:81:e9:d1:91	ge-1/1/29
00:e0:81:e9:d2:89	ge-1/1/30
00:e0:81:e9:d2:8d	ge-1/1/33
00:e0:81:e9:d2:91	ge-1/1/28
00:e0:81:e9:d4:31	ge-1/1/32
00:e0:81:e9:d5:4d	ge-1/1/37
