Synchronizing configuration...OK.
Pica8 PicOS Version 2.1
Welcome to PicOS L2/L3 on XorPlus
XorPlus> XorPlus> show ethernet-switching table[C[C
Total entries in switching table:   344
Static entries in switching table:  0
Dynamic entries in switching table: 344

VLAN    MAC address          Type       Age     Interfaces   User
----    -----------------    -------    ----    ----------   ----------
1       08:9e:01:93:15:a9    Dynamic    300     ae1          xorp      
100     00:e0:81:e6:39:ad    Dynamic    300     ae1          xorp      
100     00:e0:81:e6:39:ae    Dynamic    300     ae1          xorp      
100     00:e0:81:e6:fd:87    Dynamic    300     ae1          xorp      
100     00:e0:81:e6:fd:88    Dynamic    300     ae1          xorp      
100     00:e0:81:e6:fe:f3    Dynamic    300     ae1          xorp      
100     00:e0:81:e6:fe:f4    Dynamic    300     ae1          xorp      
100     00:e0:81:e7:00:8b    Dynamic    300     ae1          xorp      
100     00:e0:81:e7:00:8c    Dynamic    300     ae1          xorp      
100     00:e0:81:e7:00:b3    Dynamic    300     ge-1/1/17    xorp      
100     00:e0:81:e7:00:b4    Dynamic    300     ge-1/1/17    xorp      
100     00:e0:81:e8:48:2f    Dynamic    300     ge-1/1/19    xorp      
100     00:e0:81:e8:48:30    Dynamic    300     ge-1/1/19    xorp      
100     00:e0:81:e9:ce:9c    Dynamic    300     ae1          xorp      
100     00:e0:81:e9:ce:a0    Dynamic    300     ae1          xorp      
100     00:e0:81:e9:ce:a4    Dynamic    300     ae1          xorp      
100     00:e0:81:e9:ce:c8    Dynamic    300     ae1          xorp      
100     00:e0:81:e9:ce:cc    Dynamic    300     ae1          xorp      
100     00:e0:81:e9:ce:d0    Dynamic    300     ae1          xorp      
100     00:e0:81:e9:ce:d4    Dynamic    300     ae1          xorp      
100     00:e0:81:e9:ce:d8    Dynamic    300     ae1          xorp      
100     00:e0:81:e9:ce:e0    Dynamic    300     ae1          xorp      
100     00:e0:81:e9:ce:e4    Dynamic    300     ae1          xorp      
100     00:e0:81:e9:ce:e8    Dynamic    300     ae1          xorp      
100     00:e0:81:e9:ce:f4    Dynamic    300     ae1          xorp      
100     00:e0:81:e9:ce:f8    Dynamic    300     ae1          xorp      
100     00:e0:81:e9:cf:0c    Dynamic    300     ae1          xorp      
100     00:e0:81:e9:cf:14    Dynamic    300     ae1          xorp      
100     00:e0:81:e9:cf:18    Dynamic    300     ae1          xorp      
100     00:e0:81:e9:cf:20    Dynamic    300     ae1          xorp      
100     00:e0:81:e9:cf:24    Dynamic    300     ae1          xorp      
100     00:e0:81:e9:cf:28    Dynamic    300     ae1          xorp      
100     00:e0:81:e9:cf:2c    Dynamic    300     ae1          xorp      
100     00:e0:81:e9:cf:30    Dynamic    300     ae1          xorp      
100     00:e0:81:e9:cf:34    Dynamic    300     ge-1/1/5     xorp      
100     00:e0:81:e9:cf:38    Dynamic    300     ae1          xorp      
100     00:e0:81:e9:cf:3c    Dynamic    300     ae1          xorp      
100     00:e0:81:e9:cf:44    Dynamic    300     ge-1/1/13    xorp      
100     00:e0:81:e9:cf:48    Dynamic    300     ae1          xorp      
100     00:e0:81:e9:cf:4c    Dynamic    300     ge-1/1/11    xorp      
100     00:e0:81:e9:cf:50    Dynamic    300     ae1          xorp      
100     00:e0:81:e9:cf:54    Dynamic    300     ae1          xorp      
100     00:e0:81:e9:cf:58    Dynamic    300     ae1          xorp      
100     00:e0:81:e9:cf:60    Dynamic    300     ge-1/1/8     xorp      
100     00:e0:81:e9:cf:68    Dynamic    300     ae1          xorp      
100     00:e0:81:e9:cf:70    Dynamic    300     ae1          xorp      
100     00:e0:81:e9:cf:74    Dynamic    300     ae1          xorp      
100     00:e0:81:e9:cf:78    Dynamic    300     ae1          xorp      
100     00:e0:81:e9:cf:80    Dynamic    300     ae1          xorp      
100     00:e0:81:e9:cf:84    Dynamic    300     ae1          xorp      
100     00:e0:81:e9:cf:88    Dynamic    300     ae1          xorp      
100     00:e0:81:e9:cf:8c    Dynamic    300     ae1          xorp      
100     00:e0:81:e9:cf:a8    Dynamic    300     ae1          xorp      
100     00:e0:81:e9:cf:ac    Dynamic    300     ge-1/1/2     xorp      
100     00:e0:81:e9:cf:b8    Dynamic    300     ae1          xorp      
100     00:e0:81:e9:cf:cc    Dynamic    300     ae1          xorp      
100     00:e0:81:e9:cf:d0    Dynamic    300     ae1          xorp      
100     00:e0:81:e9:cf:d8    Dynamic    300     ae1          xorp      
100     00:e0:81:e9:cf:dc    Dynamic    300     ae1          xorp      
100     00:e0:81:e9:cf:e0    Dynamic    300     ae1          xorp      
100     00:e0:81:e9:cf:e4    Dynamic    300     ae1          xorp      
100     00:e0:81:e9:cf:e8    Dynamic    300     ae1          xorp      
100     00:e0:81:e9:cf:f0    Dynamic    300     ae1          xorp      
100     00:e0:81:e9:cf:f4    Dynamic    300     ae1          xorp      
100     00:e0:81:e9:cf:f8    Dynamic    300     ae1          xorp      
100     00:e0:81:e9:cf:fc    Dynamic    300     ae1          xorp      
100     00:e0:81:e9:d0:14    Dynamic    300     ae1          xorp      
100     00:e0:81:e9:d0:18    Dynamic    300     ae1          xorp      
100     00:e0:81:e9:d0:1c    Dynamic    300     ae1          xorp      
100     00:e0:81:e9:d0:20    Dynamic    300     ae1          xorp      
100     00:e0:81:e9:d0:24    Dynamic    300     ae1          xorp      
100     00:e0:81:e9:d0:28    Dynamic    300     ae1          xorp      
100     00:e0:81:e9:d0:30    Dynamic    300     ae1          xorp      
100     00:e0:81:e9:d0:34    Dynamic    300     ae1          xorp      
100     00:e0:81:e9:d0:40    Dynamic    300     ae1          xorp      
100     00:e0:81:e9:d0:44    Dynamic    300     ae1          xorp      
100     00:e0:81:e9:d0:48    Dynamic    300     ae1          xorp      
100     00:e0:81:e9:d0:4c    Dynamic    300     ae1          xorp      
100     00:e0:81:e9:d0:54    Dynamic    300     ae1          xorp      
100     00:e0:81:e9:d0:5c    Dynamic    300     ae1          xorp      
100     00:e0:81:e9:d0:60    Dynamic    300     ae1          xorp      
100     00:e0:81:e9:d0:68    Dynamic    300     ae1          xorp      
100     00:e0:81:e9:d0:6c    Dynamic    300     ae1          xorp      
100     00:e0:81:e9:d0:7c    Dynamic    300     ae1          xorp      
100     00:e0:81:e9:d0:80    Dynamic    300     ae1          xorp      
100     00:e0:81:e9:d0:98    Dynamic    300     ae1          xorp      
100     00:e0:81:e9:d0:9c    Dynamic    300     ae1          xorp      
100     00:e0:81:e9:d0:a0    Dynamic    300     ge-1/1/12    xorp      
100     00:e0:81:e9:d0:a4    Dynamic    300     ae1          xorp      
100     00:e0:81:e9:d0:c0    Dynamic    300     ae1          xorp      
100     00:e0:81:e9:d0:c4    Dynamic    300     ae1          xorp      
100     00:e0:81:e9:d0:cc    Dynamic    300     ae1          xorp      
100     00:e0:81:e9:d0:e0    Dynamic    300     ae1          xorp      
100     00:e0:81:e9:d0:e4    Dynamic    300     ae1          xorp      
100     00:e0:81:e9:d0:e8    Dynamic    300     ae1          xorp      
100     00:e0:81:e9:d0:f0    Dynamic    300     ae1          xorp      
100     00:e0:81:e9:d0:fc    Dynamic    300     ge-1/1/1     xorp      
100     00:e0:81:e9:d1:00    Dynamic    300     ae1          xorp      
100     00:e0:81:e9:d1:08    Dynamic    300     ae1          xorp      
100     00:e0:81:e9:d1:10    Dynamic    300     ae1          xorp      
100     00:e0:81:e9:d1:14    Dynamic    300     ge-1/1/6     xorp      
100     00:e0:81:e9:d1:18    Dynamic    300     ae1          xorp      
100     00:e0:81:e9:d1:1c    Dynamic    300     ae1          xorp      
100     00:e0:81:e9:d1:28    Dynamic    300     ge-1/1/14    xorp      
100     00:e0:81:e9:d1:30    Dynamic    300     ae1          xorp      
100     00:e0:81:e9:d1:34    Dynamic    300     ae1          xorp      
100     00:e0:81:e9:d1:3c    Dynamic    300     ae1          xorp      
100     00:e0:81:e9:d1:44    Dynamic    300     ae1          xorp      
100     00:e0:81:e9:d1:48    Dynamic    300     ae1          xorp      
100     00:e0:81:e9:d1:50    Dynamic    300     ae1          xorp      
100     00:e0:81:e9:d1:7c    Dynamic    300     ae1          xorp      
100     00:e0:81:e9:d1:90    Dynamic    300     ae1          xorp      
100     00:e0:81:e9:d1:b4    Dynamic    300     ge-1/1/7     xorp      
100     00:e0:81:e9:d1:b8    Dynamic    300     ae1          xorp      
100     00:e0:81:e9:d1:bc    Dynamic    300     ae1          xorp      
100     00:e0:81:e9:d1:c0    Dynamic    300     ae1          xorp      
100     00:e0:81:e9:d1:c4    Dynamic    300     ae1          xorp      
100     00:e0:81:e9:d2:84    Dynamic    300     ae1          xorp      
100     00:e0:81:e9:d2:88    Dynamic    300     ae1          xorp      
100     00:e0:81:e9:d2:8c    Dynamic    300     ae1          xorp      
100     00:e0:81:e9:d2:90    Dynamic    300     ae1          xorp      
100     00:e0:81:e9:d2:9c    Dynamic    300     ae1          xorp      
100     00:e0:81:e9:d2:b0    Dynamic    300     ae1          xorp      
100     00:e0:81:e9:d2:b4    Dynamic    300     ae1          xorp      
100     00:e0:81:e9:d2:bc    Dynamic    300     ae1          xorp      
100     00:e0:81:e9:d2:c4    Dynamic    300     ge-1/1/10    xorp      
100     00:e0:81:e9:d2:d0    Dynamic    300     ae1          xorp      
100     00:e0:81:e9:d2:d4    Dynamic    300     ae1          xorp      
100     00:e0:81:e9:d2:d8    Dynamic    300     ae1          xorp      
100     00:e0:81:e9:d2:e0    Dynamic    300     ae1          xorp      
100     00:e0:81:e9:d2:e8    Dynamic    300     ae1          xorp      
100     00:e0:81:e9:d3:78    Dynamic    300     ae1          xorp      
100     00:e0:81:e9:d3:88    Dynamic    300     ae1          xorp      
100     00:e0:81:e9:d3:8c    Dynamic    300     ae1          xorp      
100     00:e0:81:e9:d3:a8    Dynamic    300     ae1          xorp      
100     00:e0:81:e9:d3:ac    Dynamic    300     ae1          xorp      
100     00:e0:81:e9:d3:c8    Dynamic    300     ae1          xorp      
100     00:e0:81:e9:d3:d4    Dynamic    300     ae1          xorp      
100     00:e0:81:e9:d3:d8    Dynamic    300     ae1          xorp      
100     00:e0:81:e9:d3:dc    Dynamic    300     ae1          xorp      
100     00:e0:81:e9:d4:08    Dynamic    300     ae1          xorp      
100     00:e0:81:e9:d4:10    Dynamic    300     ae1          xorp      
100     00:e0:81:e9:d4:2c    Dynamic    300     ge-1/1/9     xorp      
100     00:e0:81:e9:d4:30    Dynamic    300     ae1          xorp      
100     00:e0:81:e9:d4:40    Dynamic    300     ae1          xorp      
100     00:e0:81:e9:d4:44    Dynamic    300     ae1          xorp      
100     00:e0:81:e9:d4:48    Dynamic    300     ae1          xorp      
100     00:e0:81:e9:d4:4c    Dynamic    300     ae1          xorp      
100     00:e0:81:e9:d4:54    Dynamic    300     ae1          xorp      
100     00:e0:81:e9:d4:60    Dynamic    300     ae1          xorp      
100     00:e0:81:e9:d4:64    Dynamic    300     ae1          xorp      
100     00:e0:81:e9:d4:70    Dynamic    300     ae1          xorp      
100     00:e0:81:e9:d4:7c    Dynamic    300     ae1          xorp      
100     00:e0:81:e9:d4:80    Dynamic    300     ae1          xorp      
100     00:e0:81:e9:d4:84    Dynamic    300     ae1          xorp      
100     00:e0:81:e9:d4:88    Dynamic    300     ae1          xorp      
100     00:e0:81:e9:d4:8c    Dynamic    300     ae1          xorp      
100     00:e0:81:e9:d4:a8    Dynamic    300     ae1          xorp      
100     00:e0:81:e9:d4:ac    Dynamic    300     ae1          xorp      
100     00:e0:81:e9:d4:b4    Dynamic    300     ae1          xorp      
100     00:e0:81:e9:d4:b8    Dynamic    300     ae1          xorp      
100     00:e0:81:e9:d4:cc    Dynamic    300     ae1          xorp      
100     00:e0:81:e9:d4:d8    Dynamic    300     ae1          xorp      
100     00:e0:81:e9:d4:dc    Dynamic    300     ge-1/1/3     xorp      
100     00:e0:81:e9:d4:e0    Dynamic    300     ae1          xorp      
100     00:e0:81:e9:d4:e4    Dynamic    300     ae1          xorp      
100     00:e0:81:e9:d4:e8    Dynamic    300     ge-1/1/15    xorp      
100     00:e0:81:e9:d4:ec    Dynamic    300     ae1          xorp      
100     00:e0:81:e9:d4:f8    Dynamic    300     ae1          xorp      
100     00:e0:81:e9:d5:0c    Dynamic    300     ae1          xorp      
100     00:e0:81:e9:d5:1c    Dynamic    300     ae1          xorp      
100     00:e0:81:e9:d5:28    Dynamic    300     ae1          xorp      
100     00:e0:81:e9:d5:4c    Dynamic    300     ae1          xorp      
100     00:e0:81:e9:d5:54    Dynamic    300     ge-1/1/4     xorp      
100     00:e0:81:e9:d5:68    Dynamic    300     ae1          xorp      
100     00:e0:81:e9:d5:6c    Dynamic    300     ae1          xorp      
100     08:9e:01:93:15:a9    Dynamic    300     ae1          xorp      
100     10:47:80:01:69:ca    Dynamic    300     ae1          xorp      
100     60:de:44:75:14:2e    Dynamic    300     ae1          xorp      
100     60:de:44:75:14:3a    Dynamic    300     ae1          xorp      
200     00:e0:81:e6:37:fa    Dynamic    300     ae1          xorp      
200     00:e0:81:e6:39:af    Dynamic    300     ae1          xorp      
200     00:e0:81:e6:fd:89    Dynamic    300     ae1          xorp      
200     00:e0:81:e6:fe:f5    Dynamic    300     ae1          xorp      
200     00:e0:81:e7:00:8d    Dynamic    300     ae1          xorp      
200     00:e0:81:e8:48:31    Dynamic    300     ge-1/1/43    xorp      
200     00:e0:81:e9:ce:9d    Dynamic    300     ae1          xorp      
200     00:e0:81:e9:ce:a1    Dynamic    300     ae1          xorp      
200     00:e0:81:e9:ce:a5    Dynamic    300     ae1          xorp      
200     00:e0:81:e9:ce:c9    Dynamic    300     ae1          xorp      
200     00:e0:81:e9:ce:cd    Dynamic    300     ae1          xorp      
200     00:e0:81:e9:ce:d1    Dynamic    300     ae1          xorp      
200     00:e0:81:e9:ce:d5    Dynamic    300     ae1          xorp      
200     00:e0:81:e9:ce:d9    Dynamic    300     ae1          xorp      
200     00:e0:81:e9:ce:e1    Dynamic    300     ae1          xorp      
200     00:e0:81:e9:ce:e5    Dynamic    300     ae1          xorp      
200     00:e0:81:e9:ce:e9    Dynamic    300     ae1          xorp      
200     00:e0:81:e9:ce:f5    Dynamic    300     ae1          xorp      
200     00:e0:81:e9:ce:f9    Dynamic    300     ae1          xorp      
200     00:e0:81:e9:cf:0d    Dynamic    300     ae1          xorp      
200     00:e0:81:e9:cf:15    Dynamic    300     ae1          xorp      
200     00:e0:81:e9:cf:19    Dynamic    300     ae1          xorp      
200     00:e0:81:e9:cf:1c    Dynamic    300     ae1          xorp      
200     00:e0:81:e9:cf:21    Dynamic    300     ae1          xorp      
200     00:e0:81:e9:cf:25    Dynamic    300     ae1          xorp      
200     00:e0:81:e9:cf:29    Dynamic    300     ae1          xorp      
200     00:e0:81:e9:cf:2d    Dynamic    300     ae1          xorp      
200     00:e0:81:e9:cf:31    Dynamic    300     ae1          xorp      
200     00:e0:81:e9:cf:35    Dynamic    300     ge-1/1/29    xorp      
200     00:e0:81:e9:cf:39    Dynamic    300     ae1          xorp      
200     00:e0:81:e9:cf:3d    Dynamic    300     ae1          xorp      
200     00:e0:81:e9:cf:45    Dynamic    300     ge-1/1/37    xorp      
200     00:e0:81:e9:cf:49    Dynamic    300     ae1          xorp      
200     00:e0:81:e9:cf:4d    Dynamic    300     ge-1/1/35    xorp      
200     00:e0:81:e9:cf:51    Dynamic    300     ae1          xorp      
200     00:e0:81:e9:cf:55    Dynamic    300     ae1          xorp      
200     00:e0:81:e9:cf:59    Dynamic    300     ae1          xorp      
200     00:e0:81:e9:cf:61    Dynamic    300     ge-1/1/32    xorp      
200     00:e0:81:e9:cf:69    Dynamic    300     ae1          xorp      
200     00:e0:81:e9:cf:71    Dynamic    300     ae1          xorp      
200     00:e0:81:e9:cf:75    Dynamic    300     ae1          xorp      
200     00:e0:81:e9:cf:79    Dynamic    300     ae1          xorp      
200     00:e0:81:e9:cf:81    Dynamic    300     ae1          xorp      
200     00:e0:81:e9:cf:85    Dynamic    300     ae1          xorp      
200     00:e0:81:e9:cf:89    Dynamic    300     ae1          xorp      
200     00:e0:81:e9:cf:8d    Dynamic    300     ae1          xorp      
200     00:e0:81:e9:cf:a9    Dynamic    300     ae1          xorp      
200     00:e0:81:e9:cf:ad    Dynamic    300     ge-1/1/26    xorp      
200     00:e0:81:e9:cf:b9    Dynamic    300     ae1          xorp      
200     00:e0:81:e9:cf:cd    Dynamic    300     ae1          xorp      
200     00:e0:81:e9:cf:d1    Dynamic    300     ae1          xorp      
200     00:e0:81:e9:cf:d9    Dynamic    300     ae1          xorp      
200     00:e0:81:e9:cf:dd    Dynamic    300     ae1          xorp      
200     00:e0:81:e9:cf:e1    Dynamic    300     ae1          xorp      
200     00:e0:81:e9:cf:e5    Dynamic    300     ae1          xorp      
200     00:e0:81:e9:cf:f1    Dynamic    300     ae1          xorp      
200     00:e0:81:e9:cf:f5    Dynamic    300     ae1          xorp      
200     00:e0:81:e9:cf:f9    Dynamic    300     ae1          xorp      
200     00:e0:81:e9:cf:fd    Dynamic    300     ae1          xorp      
200     00:e0:81:e9:d0:15    Dynamic    300     ae1          xorp      
200     00:e0:81:e9:d0:19    Dynamic    300     ae1          xorp      
200     00:e0:81:e9:d0:1d    Dynamic    300     ae1          xorp      
200     00:e0:81:e9:d0:21    Dynamic    300     ae1          xorp      
200     00:e0:81:e9:d0:25    Dynamic    300     ae1          xorp      
200     00:e0:81:e9:d0:29    Dynamic    300     ae1          xorp      
200     00:e0:81:e9:d0:31    Dynamic    300     ae1          xorp      
200     00:e0:81:e9:d0:35    Dynamic    300     ae1          xorp      
200     00:e0:81:e9:d0:41    Dynamic    300     ae1          xorp      
200     00:e0:81:e9:d0:49    Dynamic    300     ae1          xorp      
200     00:e0:81:e9:d0:4d    Dynamic    300     ae1          xorp      
200     00:e0:81:e9:d0:55    Dynamic    300     ae1          xorp      
200     00:e0:81:e9:d0:5d    Dynamic    300     ae1          xorp      
200     00:e0:81:e9:d0:61    Dynamic    300     ae1          xorp      
200     00:e0:81:e9:d0:69    Dynamic    300     ae1          xorp      
200     00:e0:81:e9:d0:6d    Dynamic    300     ae1          xorp      
200     00:e0:81:e9:d0:7d    Dynamic    300     ae1          xorp      
200     00:e0:81:e9:d0:81    Dynamic    300     ae1          xorp      
200     00:e0:81:e9:d0:99    Dynamic    300     ae1          xorp      
200     00:e0:81:e9:d0:a1    Dynamic    300     ge-1/1/36    xorp      
200     00:e0:81:e9:d0:a5    Dynamic    300     ae1          xorp      
200     00:e0:81:e9:d0:c1    Dynamic    300     ae1          xorp      
200     00:e0:81:e9:d0:c5    Dynamic    300     ae1          xorp      
200     00:e0:81:e9:d0:e1    Dynamic    300     ae1          xorp      
200     00:e0:81:e9:d0:e5    Dynamic    300     ae1          xorp      
200     00:e0:81:e9:d0:e9    Dynamic    300     ae1          xorp      
200     00:e0:81:e9:d0:f1    Dynamic    300     ae1          xorp      
200     00:e0:81:e9:d0:fd    Dynamic    300     ge-1/1/25    xorp      
200     00:e0:81:e9:d1:01    Dynamic    300     ae1          xorp      
200     00:e0:81:e9:d1:09    Dynamic    300     ae1          xorp      
200     00:e0:81:e9:d1:11    Dynamic    300     ae1          xorp      
200     00:e0:81:e9:d1:15    Dynamic    300     ge-1/1/30    xorp      
200     00:e0:81:e9:d1:19    Dynamic    300     ae1          xorp      
200     00:e0:81:e9:d1:1d    Dynamic    300     ae1          xorp      
200     00:e0:81:e9:d1:29    Dynamic    300     ge-1/1/38    xorp      
200     00:e0:81:e9:d1:31    Dynamic    300     ae1          xorp      
200     00:e0:81:e9:d1:35    Dynamic    300     ae1          xorp      
200     00:e0:81:e9:d1:3d    Dynamic    300     ae1          xorp      
200     00:e0:81:e9:d1:45    Dynamic    300     ae1          xorp      
200     00:e0:81:e9:d1:49    Dynamic    300     ae1          xorp      
200     00:e0:81:e9:d1:51    Dynamic    300     ae1          xorp      
200     00:e0:81:e9:d1:7d    Dynamic    300     ae1          xorp      
200     00:e0:81:e9:d1:91    Dynamic    300     ae1          xorp      
200     00:e0:81:e9:d1:b5    Dynamic    300     ge-1/1/31    xorp      
200     00:e0:81:e9:d1:b9    Dynamic    300     ae1          xorp      
200     00:e0:81:e9:d1:bd    Dynamic    300     ae1          xorp      
200     00:e0:81:e9:d1:c1    Dynamic    300     ae1          xorp      
200     00:e0:81:e9:d1:c5    Dynamic    300     ae1          xorp      
200     00:e0:81:e9:d2:85    Dynamic    300     ae1          xorp      
200     00:e0:81:e9:d2:89    Dynamic    300     ae1          xorp      
200     00:e0:81:e9:d2:8d    Dynamic    300     ae1          xorp      
200     00:e0:81:e9:d2:91    Dynamic    300     ae1          xorp      
200     00:e0:81:e9:d2:9d    Dynamic    300     ae1          xorp      
200     00:e0:81:e9:d2:b1    Dynamic    300     ae1          xorp      
200     00:e0:81:e9:d2:b5    Dynamic    300     ae1          xorp      
200     00:e0:81:e9:d2:bd    Dynamic    300     ae1          xorp      
200     00:e0:81:e9:d2:c5    Dynamic    300     ge-1/1/34    xorp      
200     00:e0:81:e9:d2:d1    Dynamic    300     ae1          xorp      
200     00:e0:81:e9:d2:d5    Dynamic    300     ae1          xorp      
200     00:e0:81:e9:d2:d9    Dynamic    300     ae1          xorp      
200     00:e0:81:e9:d2:e1    Dynamic    300     ae1          xorp      
200     00:e0:81:e9:d2:e9    Dynamic    300     ae1          xorp      
200     00:e0:81:e9:d3:79    Dynamic    300     ae1          xorp      
200     00:e0:81:e9:d3:89    Dynamic    300     ae1          xorp      
200     00:e0:81:e9:d3:8d    Dynamic    300     ae1          xorp      
200     00:e0:81:e9:d3:a9    Dynamic    300     ae1          xorp      
200     00:e0:81:e9:d3:ad    Dynamic    300     ae1          xorp      
200     00:e0:81:e9:d3:c9    Dynamic    300     ae1          xorp      
200     00:e0:81:e9:d3:d5    Dynamic    300     ae1          xorp      
200     00:e0:81:e9:d3:d9    Dynamic    300     ae1          xorp      
200     00:e0:81:e9:d3:dd    Dynamic    300     ae1          xorp      
200     00:e0:81:e9:d4:09    Dynamic    300     ae1          xorp      
200     00:e0:81:e9:d4:11    Dynamic    300     ae1          xorp      
200     00:e0:81:e9:d4:2d    Dynamic    300     ge-1/1/33    xorp      
200     00:e0:81:e9:d4:31    Dynamic    300     ae1          xorp      
200     00:e0:81:e9:d4:41    Dynamic    300     ae1          xorp      
200     00:e0:81:e9:d4:45    Dynamic    300     ae1          xorp      
200     00:e0:81:e9:d4:49    Dynamic    300     ae1          xorp      
200     00:e0:81:e9:d4:4d    Dynamic    300     ae1          xorp      
200     00:e0:81:e9:d4:61    Dynamic    300     ae1          xorp      
200     00:e0:81:e9:d4:65    Dynamic    300     ae1          xorp      
200     00:e0:81:e9:d4:71    Dynamic    300     ae1          xorp      
200     00:e0:81:e9:d4:7d    Dynamic    300     ae1          xorp      
200     00:e0:81:e9:d4:81    Dynamic    300     ae1          xorp      
200     00:e0:81:e9:d4:85    Dynamic    300     ae1          xorp      
200     00:e0:81:e9:d4:89    Dynamic    300     ae1          xorp      
200     00:e0:81:e9:d4:8d    Dynamic    300     ae1          xorp      
200     00:e0:81:e9:d4:a9    Dynamic    300     ae1          xorp      
200     00:e0:81:e9:d4:ad    Dynamic    300     ae1          xorp      
200     00:e0:81:e9:d4:b5    Dynamic    300     ae1          xorp      
200     00:e0:81:e9:d4:b9    Dynamic    300     ae1          xorp      
200     00:e0:81:e9:d4:cd    Dynamic    300     ae1          xorp      
200     00:e0:81:e9:d4:d9    Dynamic    300     ae1          xorp      
200     00:e0:81:e9:d4:dd    Dynamic    300     ge-1/1/27    xorp      
200     00:e0:81:e9:d4:e1    Dynamic    300     ae1          xorp      
200     00:e0:81:e9:d4:e5    Dynamic    300     ae1          xorp      
200     00:e0:81:e9:d4:e9    Dynamic    300     ge-1/1/39    xorp      
200     00:e0:81:e9:d4:ed    Dynamic    300     ae1          xorp      
200     00:e0:81:e9:d5:0d    Dynamic    300     ae1          xorp      
200     00:e0:81:e9:d5:1d    Dynamic    300     ae1          xorp      
200     00:e0:81:e9:d5:29    Dynamic    300     ae1          xorp      
200     00:e0:81:e9:d5:4d    Dynamic    300     ae1          xorp      
200     00:e0:81:e9:d5:55    Dynamic    300     ge-1/1/28    xorp      
200     00:e0:81:e9:d5:69    Dynamic    300     ae1          xorp      
200     08:9e:01:93:15:a9    Dynamic    300     ae1          xorp      
XorPlus>