Synchronizing configuration...OK.
Pica8 PicOS Version 2.1
Welcome to PicOS L2/L3 on XorPlus
XorPlus> XorPlus> show ethernet-switching table[C[C
Total entries in switching table:   207
Static entries in switching table:  0
Dynamic entries in switching table: 207

VLAN    MAC address          Type       Age     Interfaces   User
----    -----------------    -------    ----    ----------   ----------
1       00:e0:2b:00:00:01    Dynamic    300     ae1          xorp      
1       08:9e:01:93:15:a9    Dynamic    300     ae1          xorp      
100     00:e0:81:e7:00:b3    Dynamic    300     ae1          xorp      
100     00:e0:81:e7:00:b4    Dynamic    300     ae1          xorp      
100     00:e0:81:e8:47:60    Dynamic    300     ae1          xorp      
100     00:e0:81:e8:48:30    Dynamic    300     ae1          xorp      
100     00:e0:81:e9:ce:d4    Dynamic    300     ae1          xorp      
100     00:e0:81:e9:cf:2c    Dynamic    300     ge-1/1/4     xorp      
100     00:e0:81:e9:cf:4c    Dynamic    300     ae1          xorp      
100     00:e0:81:e9:cf:9c    Dynamic    300     ge-1/1/14    xorp      
100     00:e0:81:e9:cf:b8    Dynamic    300     ae1          xorp      
100     00:e0:81:e9:cf:d0    Dynamic    300     ae1          xorp      
100     00:e0:81:e9:cf:e0    Dynamic    300     ge-1/1/8     xorp      
100     00:e0:81:e9:d0:14    Dynamic    300     ge-1/1/11    xorp      
100     00:e0:81:e9:d0:28    Dynamic    300     ae1          xorp      
100     00:e0:81:e9:d0:54    Dynamic    300     ae1          xorp      
100     00:e0:81:e9:d0:6c    Dynamic    300     ae1          xorp      
100     00:e0:81:e9:d0:a4    Dynamic    300     ge-1/1/1     xorp      
100     00:e0:81:e9:d0:e8    Dynamic    300     ae1          xorp      
100     00:e0:81:e9:d1:20    Dynamic    300     ge-1/1/15    xorp      
100     00:e0:81:e9:d1:28    Dynamic    300     ae1          xorp      
100     00:e0:81:e9:d1:50    Dynamic    300     ge-1/1/7     xorp      
100     00:e0:81:e9:d1:7c    Dynamic    300     ge-1/1/5     xorp      
100     00:e0:81:e9:d1:c0    Dynamic    300     ge-1/1/6     xorp      
100     00:e0:81:e9:d2:e0    Dynamic    300     ge-1/1/10    xorp      
100     00:e0:81:e9:d3:88    Dynamic    300     ge-1/1/9     xorp      
100     00:e0:81:e9:d4:40    Dynamic    300     ge-1/1/3     xorp      
100     00:e0:81:e9:d4:48    Dynamic    300     ge-1/1/12    xorp      
100     00:e0:81:e9:d4:64    Dynamic    300     ae1          xorp      
100     00:e0:81:e9:d4:ac    Dynamic    300     ae1          xorp      
100     00:e0:81:e9:d4:ec    Dynamic    300     ae1          xorp      
100     00:e0:81:e9:d4:f8    Dynamic    300     ae1          xorp      
100     00:e0:81:e9:d5:0c    Dynamic    300     ge-1/1/2     xorp      
100     00:e0:81:e9:d5:28    Dynamic    300     ae1          xorp      
100     00:e0:81:e9:d5:68    Dynamic    300     ge-1/1/13    xorp      
100     08:9e:01:93:15:a9    Dynamic    300     ae1          xorp      
200     00:e0:81:e6:37:fb    Dynamic    300     ae1          xorp      
200     00:e0:81:e6:39:af    Dynamic    300     ae1          xorp      
200     00:e0:81:e6:fd:89    Dynamic    300     ae1          xorp      
200     00:e0:81:e6:fe:f5    Dynamic    300     ae1          xorp      
200     00:e0:81:e7:00:8d    Dynamic    300     ae1          xorp      
200     00:e0:81:e8:48:31    Dynamic    300     ae1          xorp      
200     00:e0:81:e9:ce:9d    Dynamic    300     ae1          xorp      
200     00:e0:81:e9:ce:a1    Dynamic    300     ae1          xorp      
200     00:e0:81:e9:ce:a5    Dynamic    300     ae1          xorp      
200     00:e0:81:e9:ce:c9    Dynamic    300     ae1          xorp      
200     00:e0:81:e9:ce:cd    Dynamic    300     ae1          xorp      
200     00:e0:81:e9:ce:d1    Dynamic    300     ae1          xorp      
200     00:e0:81:e9:ce:d5    Dynamic    300     ae1          xorp      
200     00:e0:81:e9:ce:d9    Dynamic    300     ae1          xorp      
200     00:e0:81:e9:ce:e1    Dynamic    300     ae1          xorp      
200     00:e0:81:e9:ce:e5    Dynamic    300     ae1          xorp      
200     00:e0:81:e9:ce:e9    Dynamic    300     ae1          xorp      
200     00:e0:81:e9:ce:f5    Dynamic    300     ae1          xorp      
200     00:e0:81:e9:ce:f9    Dynamic    300     ae1          xorp      
200     00:e0:81:e9:cf:0d    Dynamic    300     ae1          xorp      
200     00:e0:81:e9:cf:15    Dynamic    300     ae1          xorp      
200     00:e0:81:e9:cf:19    Dynamic    300     ae1          xorp      
200     00:e0:81:e9:cf:1d    Dynamic    300     ae1          xorp      
200     00:e0:81:e9:cf:21    Dynamic    300     ae1          xorp      
200     00:e0:81:e9:cf:25    Dynamic    300     ae1          xorp      
200     00:e0:81:e9:cf:29    Dynamic    300     ae1          xorp      
200     00:e0:81:e9:cf:2d    Dynamic    300     ge-1/1/28    xorp      
200     00:e0:81:e9:cf:31    Dynamic    300     ae1          xorp      
200     00:e0:81:e9:cf:35    Dynamic    300     ae1          xorp      
200     00:e0:81:e9:cf:39    Dynamic    300     ae1          xorp      
200     00:e0:81:e9:cf:3d    Dynamic    300     ae1          xorp      
200     00:e0:81:e9:cf:45    Dynamic    300     ae1          xorp      
200     00:e0:81:e9:cf:49    Dynamic    300     ae1          xorp      
200     00:e0:81:e9:cf:4d    Dynamic    300     ae1          xorp      
200     00:e0:81:e9:cf:51    Dynamic    300     ae1          xorp      
200     00:e0:81:e9:cf:55    Dynamic    300     ae1          xorp      
200     00:e0:81:e9:cf:59    Dynamic    300     ae1          xorp      
200     00:e0:81:e9:cf:61    Dynamic    300     ae1          xorp      
200     00:e0:81:e9:cf:69    Dynamic    300     ae1          xorp      
200     00:e0:81:e9:cf:71    Dynamic    300     ae1          xorp      
200     00:e0:81:e9:cf:75    Dynamic    300     ae1          xorp      
200     00:e0:81:e9:cf:79    Dynamic    300     ae1          xorp      
200     00:e0:81:e9:cf:81    Dynamic    300     ae1          xorp      
200     00:e0:81:e9:cf:85    Dynamic    300     ae1          xorp      
200     00:e0:81:e9:cf:89    Dynamic    300     ae1          xorp      
200     00:e0:81:e9:cf:8d    Dynamic    300     ae1          xorp      
200     00:e0:81:e9:cf:9d    Dynamic    300     ge-1/1/38    xorp      
200     00:e0:81:e9:cf:a9    Dynamic    300     ae1          xorp      
200     00:e0:81:e9:cf:ad    Dynamic    300     ae1          xorp      
200     00:e0:81:e9:cf:b9    Dynamic    300     ae1          xorp      
200     00:e0:81:e9:cf:cd    Dynamic    300     ae1          xorp      
200     00:e0:81:e9:cf:d1    Dynamic    300     ae1          xorp      
200     00:e0:81:e9:cf:d9    Dynamic    300     ae1          xorp      
200     00:e0:81:e9:cf:dd    Dynamic    300     ae1          xorp      
200     00:e0:81:e9:cf:e1    Dynamic    300     ge-1/1/32    xorp      
200     00:e0:81:e9:cf:e5    Dynamic    300     ae1          xorp      
200     00:e0:81:e9:cf:f1    Dynamic    300     ae1          xorp      
200     00:e0:81:e9:cf:f5    Dynamic    300     ae1          xorp      
200     00:e0:81:e9:cf:f9    Dynamic    300     ae1          xorp      
200     00:e0:81:e9:cf:fd    Dynamic    300     ae1          xorp      
200     00:e0:81:e9:d0:15    Dynamic    300     ge-1/1/35    xorp      
200     00:e0:81:e9:d0:19    Dynamic    300     ae1          xorp      
200     00:e0:81:e9:d0:1d    Dynamic    300     ae1          xorp      
200     00:e0:81:e9:d0:21    Dynamic    300     ae1          xorp      
200     00:e0:81:e9:d0:25    Dynamic    300     ae1          xorp      
200     00:e0:81:e9:d0:29    Dynamic    300     ae1          xorp      
200     00:e0:81:e9:d0:31    Dynamic    300     ae1          xorp      
200     00:e0:81:e9:d0:35    Dynamic    300     ae1          xorp      
200     00:e0:81:e9:d0:41    Dynamic    300     ae1          xorp      
200     00:e0:81:e9:d0:49    Dynamic    300     ae1          xorp      
200     00:e0:81:e9:d0:4d    Dynamic    300     ae1          xorp      
200     00:e0:81:e9:d0:55    Dynamic    300     ae1          xorp      
200     00:e0:81:e9:d0:5d    Dynamic    300     ae1          xorp      
200     00:e0:81:e9:d0:61    Dynamic    300     ae1          xorp      
200     00:e0:81:e9:d0:69    Dynamic    300     ae1          xorp      
200     00:e0:81:e9:d0:6d    Dynamic    300     ae1          xorp      
200     00:e0:81:e9:d0:7d    Dynamic    300     ae1          xorp      
200     00:e0:81:e9:d0:81    Dynamic    300     ae1          xorp      
200     00:e0:81:e9:d0:99    Dynamic    300     ae1          xorp      
200     00:e0:81:e9:d0:a1    Dynamic    300     ae1          xorp      
200     00:e0:81:e9:d0:a5    Dynamic    300     ge-1/1/25    xorp      
200     00:e0:81:e9:d0:c1    Dynamic    300     ae1          xorp      
200     00:e0:81:e9:d0:c5    Dynamic    300     ae1          xorp      
200     00:e0:81:e9:d0:cd    Dynamic    300     ae1          xorp      
200     00:e0:81:e9:d0:e1    Dynamic    300     ae1          xorp      
200     00:e0:81:e9:d0:e5    Dynamic    300     ae1          xorp      
200     00:e0:81:e9:d0:e9    Dynamic    300     ae1          xorp      
200     00:e0:81:e9:d0:f1    Dynamic    300     ae1          xorp      
200     00:e0:81:e9:d0:fd    Dynamic    300     ae1          xorp      
200     00:e0:81:e9:d1:01    Dynamic    300     ae1          xorp      
200     00:e0:81:e9:d1:09    Dynamic    300     ae1          xorp      
200     00:e0:81:e9:d1:11    Dynamic    300     ae1          xorp      
200     00:e0:81:e9:d1:15    Dynamic    300     ae1          xorp      
200     00:e0:81:e9:d1:19    Dynamic    300     ae1          xorp      
200     00:e0:81:e9:d1:1d    Dynamic    300     ae1          xorp      
200     00:e0:81:e9:d1:21    Dynamic    300     ge-1/1/39    xorp      
200     00:e0:81:e9:d1:25    Dynamic    300     ae1          xorp      
200     00:e0:81:e9:d1:29    Dynamic    300     ae1          xorp      
200     00:e0:81:e9:d1:31    Dynamic    300     ae1          xorp      
200     00:e0:81:e9:d1:35    Dynamic    300     ae1          xorp      
200     00:e0:81:e9:d1:3d    Dynamic    300     ae1          xorp      
200     00:e0:81:e9:d1:45    Dynamic    300     ae1          xorp      
200     00:e0:81:e9:d1:49    Dynamic    300     ae1          xorp      
200     00:e0:81:e9:d1:51    Dynamic    300     ge-1/1/31    xorp      
200     00:e0:81:e9:d1:7d    Dynamic    300     ge-1/1/29    xorp      
200     00:e0:81:e9:d1:91    Dynamic    300     ae1          xorp      
200     00:e0:81:e9:d1:b5    Dynamic    300     ae1          xorp      
200     00:e0:81:e9:d1:b9    Dynamic    300     ae1          xorp      
200     00:e0:81:e9:d1:bd    Dynamic    300     ae1          xorp      
200     00:e0:81:e9:d1:c1    Dynamic    300     ge-1/1/30    xorp      
200     00:e0:81:e9:d1:c5    Dynamic    300     ae1          xorp      
200     00:e0:81:e9:d2:85    Dynamic    300     ae1          xorp      
200     00:e0:81:e9:d2:89    Dynamic    300     ae1          xorp      
200     00:e0:81:e9:d2:8d    Dynamic    300     ae1          xorp      
200     00:e0:81:e9:d2:91    Dynamic    300     ae1          xorp      
200     00:e0:81:e9:d2:9d    Dynamic    300     ae1          xorp      
200     00:e0:81:e9:d2:b1    Dynamic    300     ae1          xorp      
200     00:e0:81:e9:d2:b5    Dynamic    300     ae1          xorp      
200     00:e0:81:e9:d2:bd    Dynamic    300     ae1          xorp      
200     00:e0:81:e9:d2:c5    Dynamic    300     ae1          xorp      
200     00:e0:81:e9:d2:d1    Dynamic    300     ae1          xorp      
200     00:e0:81:e9:d2:d5    Dynamic    300     ae1          xorp      
200     00:e0:81:e9:d2:d9    Dynamic    300     ae1          xorp      
200     00:e0:81:e9:d2:e1    Dynamic    300     ge-1/1/34    xorp      
200     00:e0:81:e9:d2:e9    Dynamic    300     ae1          xorp      
200     00:e0:81:e9:d2:ed    Dynamic    300     ae1          xorp      
200     00:e0:81:e9:d3:79    Dynamic    300     ae1          xorp      
200     00:e0:81:e9:d3:89    Dynamic    300     ge-1/1/33    xorp      
200     00:e0:81:e9:d3:8d    Dynamic    300     ae1          xorp      
200     00:e0:81:e9:d3:a9    Dynamic    300     ae1          xorp      
200     00:e0:81:e9:d3:ad    Dynamic    300     ae1          xorp      
200     00:e0:81:e9:d3:c9    Dynamic    300     ae1          xorp      
200     00:e0:81:e9:d3:d5    Dynamic    300     ae1          xorp      
200     00:e0:81:e9:d3:d9    Dynamic    300     ae1          xorp      
200     00:e0:81:e9:d3:dd    Dynamic    300     ae1          xorp      
200     00:e0:81:e9:d4:09    Dynamic    300     ae1          xorp      
200     00:e0:81:e9:d4:11    Dynamic    300     ae1          xorp      
200     00:e0:81:e9:d4:2d    Dynamic    300     ae1          xorp      
200     00:e0:81:e9:d4:31    Dynamic    300     ae1          xorp      
200     00:e0:81:e9:d4:41    Dynamic    300     ge-1/1/27    xorp      
200     00:e0:81:e9:d4:45    Dynamic    300     ae1          xorp      
200     00:e0:81:e9:d4:49    Dynamic    300     ge-1/1/36    xorp      
200     00:e0:81:e9:d4:4d    Dynamic    300     ae1          xorp      
200     00:e0:81:e9:d4:5d    Dynamic    300     ae1          xorp      
200     00:e0:81:e9:d4:61    Dynamic    300     ae1          xorp      
200     00:e0:81:e9:d4:65    Dynamic    300     ae1          xorp      
200     00:e0:81:e9:d4:71    Dynamic    300     ae1          xorp      
200     00:e0:81:e9:d4:7d    Dynamic    300     ae1          xorp      
200     00:e0:81:e9:d4:81    Dynamic    300     ae1          xorp      
200     00:e0:81:e9:d4:85    Dynamic    300     ae1          xorp      
200     00:e0:81:e9:d4:89    Dynamic    300     ae1          xorp      
200     00:e0:81:e9:d4:8d    Dynamic    300     ae1          xorp      
200     00:e0:81:e9:d4:a9    Dynamic    300     ae1          xorp      
200     00:e0:81:e9:d4:ad    Dynamic    300     ae1          xorp      
200     00:e0:81:e9:d4:b5    Dynamic    300     ae1          xorp      
200     00:e0:81:e9:d4:b9    Dynamic    300     ae1          xorp      
200     00:e0:81:e9:d4:cd    Dynamic    300     ae1          xorp      
200     00:e0:81:e9:d4:d9    Dynamic    300     ae1          xorp      
200     00:e0:81:e9:d4:dd    Dynamic    300     ae1          xorp      
200     00:e0:81:e9:d4:e1    Dynamic    300     ae1          xorp      
200     00:e0:81:e9:d4:e5    Dynamic    300     ae1          xorp      
200     00:e0:81:e9:d4:e9    Dynamic    300     ae1          xorp      
200     00:e0:81:e9:d4:ed    Dynamic    300     ae1          xorp      
200     00:e0:81:e9:d4:f9    Dynamic    300     ae1          xorp      
200     00:e0:81:e9:d5:0d    Dynamic    300     ge-1/1/26    xorp      
200     00:e0:81:e9:d5:15    Dynamic    300     ae1          xorp      
200     00:e0:81:e9:d5:1d    Dynamic    300     ae1          xorp      
200     00:e0:81:e9:d5:29    Dynamic    300     ae1          xorp      
200     00:e0:81:e9:d5:4d    Dynamic    300     ae1          xorp      
200     00:e0:81:e9:d5:55    Dynamic    300     ae1          xorp      
200     00:e0:81:e9:d5:69    Dynamic    300     ge-1/1/37    xorp      
XorPlus>